…
## Calculating cluster FibroticFib_CTHRC1high

## Calculating cluster ProliferatingFib

## Calculating cluster AdventitialFib
```

``` r
fib.markers %>% group_by(cluster) %>% slice_head(n=10) %>% ungroup() -> top10
top10
```

```         
## # A tibble: 80 × 7
##        p_val avg_log2FC pct.1 pct.2 p_val_adj cluster      gene   
##        <dbl>      <dbl> <dbl> <dbl>     <dbl> <fct>        <chr>  
##  1 0               4.42 0.903 0.098 0         SmoothMuscle DES    
##  2 0               4.18 0.978 0.188 0         SmoothMuscle MYH11  
##  3 0               3.49 0.766 0.122 0         SmoothMuscle LMOD1  
##  4 0               3.86 0.655 0.072 0         SmoothMuscle CNN1   
##  5 0               1.96 0.504 0.161 0         SmoothMuscle ADAMTS1
##  6 0               4.36 0.279 0.016 0         SmoothMuscle PLN    
##  7 0               2.00 0.245 0.062 0         SmoothMuscle DGKG   
##  8 0               3.28 0.09  0.01  0         SmoothMuscle LGR6   
##  9 0               3.65 0.087 0.009 0         SmoothMuscle P2RX1  
## 10 1.05e-116       1.47 0.077 0.026 4.07e-114 SmoothMuscle NTRK2  
## # ℹ 70 more rows
```
…
